{
  "project_info": {
    "project_number": "160490025896",
    "firebase_url": "https://skeat-6eb15.firebaseio.com",
    "project_id": "skeat-6eb15",
    "storage_bucket": "skeat-6eb15.appspot.com"
  },
  "client": [
    {
      "client_info": {
        "mobilesdk_app_id": "1:160490025896:android:f4b2ba4728e157b9",
        "android_client_info": {
          "package_name": "com.skeat"
        }
      },
      "oauth_client": [
        {
          "client_id": "160490025896-t2kfatoaipcopogb7gbgajmemiqqdrib.apps.googleusercontent.com",
          "client_type": 3
        }
      ],
      "api_key": [
        {
          "current_key": "AIzaSyB7IaAK3CHL4MJmm6yHy11liQdIHdViUfM"
        }
      ],
      "services": {
        "analytics_service": {
          "status": 1
        },
        "appinvite_service": {
          "status": 1,
          "other_platform_oauth_client": []
        },
        "ads_service": {
          "status": 2
        }
      }
    }
  ],
  "configuration_version": "1"
}